…
Below, I show the counts of replicated prefixes, collisions, in descending order.

There are ~245,562 records (nearly 10%) that have at least one other molecule that match its
prefix (and, not shown, ~28,000 that have at least 10 other molecules matching its prefix).
There are also some groups that have lots of replicates (>200, even one 511).

That means for many molecules it is not possible to resolve if they are different
by the prefix alone; they require the deserialization of the binary molecule to
answer that. Furthermore, for some molecules, if you hit one of these hot spots,
your query could need to deserialize 511 times.

```sql
D select * from (select num_rings, num_atoms, amw::integer, num_bonds, count(*) as count from molecule group by num_rings, num_atoms, amw::integer, num_bonds order by count desc) as g where g.count > 1;
┌───────────┬───────────┬──────────────────────┬───────────┬───────┐
│ num_rings │ num_atoms │ CAST(amw AS INTEGER) │ num_bonds │ count │
│   int32   │   int32   │        int32         │   int32   │ int64 │
├───────────┼───────────┼──────────────────────┼───────────┼───────┤
│         4 │       193 │                 1348 │        42 │   511 │
│         3 │        39 │                  308 │         4 │   330 │
│         3 │        42 │                  322 │         5 │   314 │
│         3 │        35 │                  282 │         3 │   311 │
│         3 │        31 │                  252 │         2 │   300 │
│         3 │        41 │                  310 │         4 │   294 │
│         3 │        36 │                  294 │         3 │   292 │
│         3 │        38 │                  296 │         4 │   292 │
│         3 │        32 │                  268 │         2 │   286 │
│         3 │        37 │                  280 │         3 │   280 │
│         3 │        36 │                  281 │         3 │   280 │
│         3 │        35 │                  278 │         3 │   279 │
│         3 │        37 │                  293 │         3 │   274 │
│         3 │        38 │                  309 │         4 │   272 │
│         3 │        34 │                  266 │         3 │   272 │
│         3 │        34 │                  266 │         2 │   271 │
│         3 │        47 │                  338 │         5 │   269 │
│         3 │        38 │                  296 │         3 │   266 │
│         3 │        41 │                  323 │         4 │   266 │
│         3 │        40 │                  311 │         4 │   262 │
│         · │         · │                   ·  │         · │     · │
│         · │         · │                   ·  │         · │     · │
│         · │         · │                   ·  │         · │     · │
│         5 │        76 │                  549 │         4 │     2 │
│         8 │        77 │                  636 │         6 │     2 │
│         4 │        30 │                  336 │         1 │     2 │
│         3 │        59 │                  476 │         6 │     2 │
│         5 │        52 │                  543 │         4 │     2 │
│         5 │        55 │                  571 │         4 │     2 │
│         3 │        71 │                  494 │         8 │     2 │
│         2 │        65 │                  444 │         3 │     2 │
│         3 │        55 │                  391 │         6 │     2 │
│         5 │        52 │                  465 │         8 │     2 │
│         4 │        43 │                  426 │         1 │     2 │
│         5 │        56 │                  379 │         7 │     2 │
│         2 │       103 │                  652 │        11 │     2 │
│         4 │        40 │                  401 │         6 │     2 │
│         4 │        46 │                  411 │         8 │     2 │
│         2 │        61 │                  400 │         7 │     2 │
│         2 │        19 │                  183 │         1 │     2 │
│         3 │        48 │                  290 │         3 │     2 │
│         3 │        49 │                  330 │         6 │     2 │
│         1 │        38 │                  324 │         4 │     2 │
├───────────┴───────────┴──────────────────────┴───────────┴───────┤
│ 245562 rows (40 shown)                                 5 columns │
└──────────────────────────────────────────────────────────────────┘
…
<!-- ```sql -->
<!-- D SELECT count(distinct(rdkit_mol)) from molecule where amw::integer=1348 and num_atoms=193 and num_bonds=42 and num_rings=4 ; -->
<!-- ┌───────────────────────────┐ -->
<!-- │ count(DISTINCT rdkit_mol) │ -->
<!-- │           int64           │ -->
<!-- ├───────────────────────────┤ -->
<!-- │                       511 │ -->
<!-- └───────────────────────────┘ -->
<!-- Run Time (s): real 0.004 user 0.019251 sys 0.001141 -->
<!---->
<!-- D SELECT canonical_smiles from molecule where amw::integer=1348 and num_atoms=193 and num_bonds=42 and num_rings=4 ; -->
<!-- ┌─────────────────────────────────────────────────────────────────────────────────────────────────────────────────────────────────────────────────────────────────────────┐ -->
<!-- │                                                                            canonical_smiles                                                                             │ -->
<!-- │                                                                                 varchar                                                                                 │ -->
<!-- ├─────────────────────────────────────────────────────────────────────────────────────────────────────────────────────────────────────────────────────────────────────────┤ -->
<!-- │ CSCC[C@H](NC(=O)[C@H](CC(C)C)NC(=O)CNC(=O)[C@@H](Cc1ccccc1)NC(=O)[C@@H](Cc1ccccc1)NC(=O)[C@@H](CCC(N)=O)NC(=O)[C@@H](CCC(N)=O)NC(=O)[C@@H]1CCCN1C(=O)[C@@H](CCCCN)NC(…  │ -->
<!-- │ CSCC[C@H](NC(=O)[C@@H](CC(C)C)NC(=O)CNC(=O)[C@@H](Cc1ccccc1)NC(=O)[C@H](Cc1ccccc1)NC(=O)[C@@H](CCC(N)=O)NC(=O)[C@H](CCC(N)=O)NC(=O)[C@H]1CCCN1C(=O)[C@@H](CCCCN)NC(=O…  │ -->
<!-- │ CSCC[C@H](NC(=O)[C@@H](CC(C)C)NC(=O)CNC(=O)[C@@H](Cc1ccccc1)NC(=O)[C@@H](Cc1ccccc1)NC(=O)[C@@H](CCC(N)=O)NC(=O)[C@@H](CCC(N)=O)NC(=O)[C@@H]1CCCN1C(=O)[C@H](CCCCN)NC(…  │ -->
<!-- │ CSCC[C@H](NC(=O)[C@H](CC(C)C)NC(=O)CNC(=O)[C@@H](Cc1ccccc1)NC(=O)[C@@H](Cc1ccccc1)NC(=O)[C@@H](CCC(N)=O)NC(=O)[C@H](CCC(N)=O)NC(=O)[C@H]1CCCN1C(=O)[C@@H](CCCCN)NC(=O…  │ -->
<!-- │ CSCC[C@H](NC(=O)[C@H](CC(C)C)NC(=O)CNC(=O)[C@H](Cc1ccccc1)NC(=O)[C@H](Cc1ccccc1)NC(=O)[C@H](CCC(N)=O)NC(=O)[C@@H](CCC(N)=O)NC(=O)[C@@H]1CCCN1C(=O)[C@H](CCCCN)NC(=O)[…  │ -->
<!-- │ CSCC[C@H](NC(=O)[C@H](CC(C)C)NC(=O)CNC(=O)[C@H](Cc1ccccc1)NC(=O)[C@@H](Cc1ccccc1)NC(=O)[C@H](CCC(N)=O)NC(=O)[C@H](CCC(N)=O)NC(=O)[C@H]1CCCN1C(=O)[C@H](CCCCN)NC(=O)[C…  │ -->
<!-- │ CSCC[C@H](NC(=O)[C@H](CC(C)C)NC(=O)CNC(=O)[C@@H](Cc1ccccc1)NC(=O)[C@H](Cc1ccccc1)NC(=O)[C@H](CCC(N)=O)NC(=O)[C@H](CCC(N)=O)NC(=O)[C@H]1CCCN1C(=O)[C@H](CCCCN)NC(=O)[C…  │ -->
<!-- │ CSCCC(NC(=O)C(CC(C)C)NC(=O)CNC(=O)C(Cc1ccccc1)NC(=O)C(Cc1ccccc1)NC(=O)C(CCC(N)=O)NC(=O)C(CCC(N)=O)NC(=O)C1CCCN1C(=O)C(CCCCN)NC(=O)C1CCCN1C(=O)C(N)CCCNC(=N)N)C(N)=O     │ -->
<!-- │ CSCC[C@H](NC(=O)[C@H](CC(C)C)NC(=O)CNC(=O)[C@H](Cc1ccccc1)NC(=O)[C@H](Cc1ccccc1)NC(=O)[C@H](CCC(N)=O)NC(=O)[C@H](CCC(N)=O)NC(=O)[C@H]1CCCN1C(=O)[C@H](CCCCN)NC(=O)[C@…  │ -->
<!-- │ CSCC[C@H](NC(=O)[C@@H](CC(C)C)NC(=O)CNC(=O)[C@@H](Cc1ccccc1)NC(=O)[C@H](Cc1ccccc1)NC(=O)[C@@H](CCC(N)=O)NC(=O)[C@H](CCC(N)=O)NC(=O)[C@@H]1CCCN1C(=O)[C@@H](CCCCN)NC(=…  │ -->
<!-- │ CSCC[C@H](NC(=O)[C@@H](CC(C)C)NC(=O)CNC(=O)[C@@H](Cc1ccccc1)NC(=O)[C@H](Cc1ccccc1)NC(=O)[C@@H](CCC(N)=O)NC(=O)[C@H](CCC(N)=O)NC(=O)[C@H]1CCCN1C(=O)[C@H](CCCCN)NC(=O)…  │ -->
<!-- │ CSCC[C@H](NC(=O)[C@@H](CC(C)C)NC(=O)CNC(=O)[C@H](Cc1ccccc1)NC(=O)[C@@H](Cc1ccccc1)NC(=O)[C@@H](CCC(N)=O)NC(=O)[C@H](CCC(N)=O)NC(=O)[C@H]1CCCN1C(=O)[C@H](CCCCN)NC(=O)…  │ -->
<!-- │ CSCC[C@H](NC(=O)[C@@H](CC(C)C)NC(=O)CNC(=O)[C@@H](Cc1ccccc1)NC(=O)[C@@H](Cc1ccccc1)NC(=O)[C@H](CCC(N)=O)NC(=O)[C@@H](CCC(N)=O)NC(=O)[C@H]1CCCN1C(=O)[C@@H](CCCCN)NC(=…  │ -->
<!-- │ CSCC[C@H](NC(=O)[C@H](CC(C)C)NC(=O)CNC(=O)[C@@H](Cc1ccccc1)NC(=O)[C@@H](Cc1ccccc1)NC(=O)[C@H](CCC(N)=O)NC(=O)[C@@H](CCC(N)=O)NC(=O)[C@H]1CCCN1C(=O)[C@H](CCCCN)NC(=O)…  │ -->
<!-- │ CSCC[C@H](NC(=O)[C@@H](CC(C)C)NC(=O)CNC(=O)[C@H](Cc1ccccc1)NC(=O)[C@H](Cc1ccccc1)NC(=O)[C@@H](CCC(N)=O)NC(=O)[C@@H](CCC(N)=O)NC(=O)[C@H]1CCCN1C(=O)[C@H](CCCCN)NC(=O)…  │ -->
<!-- │ CSCC[C@H](NC(=O)[C@H](CC(C)C)NC(=O)CNC(=O)[C@H](Cc1ccccc1)NC(=O)[C@@H](Cc1ccccc1)NC(=O)[C@@H](CCC(N)=O)NC(=O)[C@@H](CCC(N)=O)NC(=O)[C@H]1CCCN1C(=O)[C@H](CCCCN)NC(=O)…  │ -->
<!-- │ CSCC[C@H](NC(=O)[C@@H](CC(C)C)NC(=O)CNC(=O)[C@@H](Cc1ccccc1)NC(=O)[C@H](Cc1ccccc1)NC(=O)[C@H](CCC(N)=O)NC(=O)[C@@H](CCC(N)=O)NC(=O)[C@@H]1CCCN1C(=O)[C@@H](CCCCN)NC(=…  │ -->
<!-- │ CSCC[C@H](NC(=O)[C@@H](CC(C)C)NC(=O)CNC(=O)[C@H](Cc1ccccc1)NC(=O)[C@@H](Cc1ccccc1)NC(=O)[C@H](CCC(N)=O)NC(=O)[C@@H](CCC(N)=O)NC(=O)[C@@H]1CCCN1C(=O)[C@@H](CCCCN)NC(=…  │ -->
<!-- │ CSCC[C@H](NC(=O)[C@H](CC(C)C)NC(=O)CNC(=O)[C@@H](Cc1ccccc1)NC(=O)[C@@H](Cc1ccccc1)NC(=O)[C@H](CCC(N)=O)NC(=O)[C@@H](CCC(N)=O)NC(=O)[C@@H]1CCCN1C(=O)[C@@H](CCCCN)NC(=…  │ -->
<!-- │ CSCC[C@H](NC(=O)[C@H](CC(C)C)NC(=O)CNC(=O)[C@@H](Cc1ccccc1)NC(=O)[C@H](Cc1ccccc1)NC(=O)[C@H](CCC(N)=O)NC(=O)[C@@H](CCC(N)=O)NC(=O)[C@@H]1CCCN1C(=O)[C@H](CCCCN)NC(=O)…  │ -->
<!-- │                                                                                    ·                                                                                    │ -->
<!-- │                                                                                    ·                                                                                    │ -->
<!-- │                                                                                    ·                                                                                    │ -->
<!-- │ CSCC[C@H](NC(=O)[C@@H](CC(C)C)NC(=O)CNC(=O)[C@H](Cc1ccccc1)NC(=O)[C@H](Cc1ccccc1)NC(=O)[C@@H](CCC(N)=O)NC(=O)[C@@H](CCC(N)=O)NC(=O)[C@@H]1CCCN1C(=O)[C@H](CCCCN)NC(=O…  │ -->
<!-- │ CSCC[C@H](NC(=O)[C@H](CC(C)C)NC(=O)CNC(=O)[C@H](Cc1ccccc1)NC(=O)[C@@H](Cc1ccccc1)NC(=O)[C@@H](CCC(N)=O)NC(=O)[C@@H](CCC(N)=O)NC(=O)[C@@H]1CCCN1C(=O)[C@H](CCCCN)NC(=O…  │ -->
<!-- │ CSCC[C@H](NC(=O)[C@@H](CC(C)C)NC(=O)CNC(=O)[C@H](Cc1ccccc1)NC(=O)[C@H](Cc1ccccc1)NC(=O)[C@H](CCC(N)=O)NC(=O)[C@@H](CCC(N)=O)NC(=O)[C@@H]1CCCN1C(=O)[C@@H](CCCCN)NC(=O…  │ -->
<!-- │ CSCC[C@H](NC(=O)[C@H](CC(C)C)NC(=O)CNC(=O)[C@H](Cc1ccccc1)NC(=O)[C@@H](Cc1ccccc1)NC(=O)[C@H](CCC(N)=O)NC(=O)[C@H](CCC(N)=O)NC(=O)[C@@H]1CCCN1C(=O)[C@@H](CCCCN)NC(=O)…  │ -->
<!-- │ CSCC[C@H](NC(=O)[C@H](CC(C)C)NC(=O)CNC(=O)[C@H](Cc1ccccc1)NC(=O)[C@H](Cc1ccccc1)NC(=O)[C@@H](CCC(N)=O)NC(=O)[C@H](CCC(N)=O)NC(=O)[C@@H]1CCCN1C(=O)[C@@H](CCCCN)NC(=O)…  │ -->
<!-- │ CSCC[C@H](NC(=O)[C@H](CC(C)C)NC(=O)CNC(=O)[C@H](Cc1ccccc1)NC(=O)[C@H](Cc1ccccc1)NC(=O)[C@H](CCC(N)=O)NC(=O)[C@@H](CCC(N)=O)NC(=O)[C@@H]1CCCN1C(=O)[C@@H](CCCCN)NC(=O)…  │ -->
<!-- │ CSCC[C@H](NC(=O)[C@@H](CC(C)C)NC(=O)CNC(=O)[C@H](Cc1ccccc1)NC(=O)[C@@H](Cc1ccccc1)NC(=O)[C@@H](CCC(N)=O)NC(=O)[C@@H](CCC(N)=O)NC(=O)[C@H]1CCCN1C(=O)[C@H](CCCCN)NC(=O…  │ -->
<!-- │ CSCC[C@H](NC(=O)[C@@H](CC(C)C)NC(=O)CNC(=O)[C@H](Cc1ccccc1)NC(=O)[C@H](Cc1ccccc1)NC(=O)[C@H](CCC(N)=O)NC(=O)[C@@H](CCC(N)=O)NC(=O)[C@H]1CCCN1C(=O)[C@H](CCCCN)NC(=O)[…  │ -->
<!-- │ CSCC[C@H](NC(=O)[C@H](CC(C)C)NC(=O)CNC(=O)[C@@H](Cc1ccccc1)NC(=O)[C@H](Cc1ccccc1)NC(=O)[C@H](CCC(N)=O)NC(=O)[C@@H](CCC(N)=O)NC(=O)[C@@H]1CCCN1C(=O)[C@H](CCCCN)NC(=O)…  │ -->
<!-- │ CSCC[C@H](NC(=O)[C@@H](CC(C)C)NC(=O)CNC(=O)[C@@H](Cc1ccccc1)NC(=O)[C@H](Cc1ccccc1)NC(=O)[C@@H](CCC(N)=O)NC(=O)[C@@H](CCC(N)=O)NC(=O)[C@H]1CCCN1C(=O)[C@@H](CCCCN)NC(=…  │ -->
<!-- │ CSCC[C@H](NC(=O)[C@@H](CC(C)C)NC(=O)CNC(=O)[C@H](Cc1ccccc1)NC(=O)[C@@H](Cc1ccccc1)NC(=O)[C@@H](CCC(N)=O)NC(=O)[C@@H](CCC(N)=O)NC(=O)[C@H]1CCCN1C(=O)[C@@H](CCCCN)NC(=…  │ -->
<!-- │ CSCC[C@H](NC(=O)[C@H](CC(C)C)NC(=O)CNC(=O)[C@@H](Cc1ccccc1)NC(=O)[C@@H](Cc1ccccc1)NC(=O)[C@@H](CCC(N)=O)NC(=O)[C@@H](CCC(N)=O)NC(=O)[C@H]1CCCN1C(=O)[C@@H](CCCCN)NC(=…  │ -->
<!-- │ CSCC[C@H](NC(=O)[C@@H](CC(C)C)NC(=O)CNC(=O)[C@@H](Cc1ccccc1)NC(=O)[C@@H](Cc1ccccc1)NC(=O)[C@H](CCC(N)=O)NC(=O)[C@H](CCC(N)=O)NC(=O)[C@@H]1CCCN1C(=O)[C@@H](CCCCN)NC(=…  │ -->
<!-- │ CSCC[C@H](NC(=O)[C@H](CC(C)C)NC(=O)CNC(=O)[C@@H](Cc1ccccc1)NC(=O)[C@@H](Cc1ccccc1)NC(=O)[C@H](CCC(N)=O)NC(=O)[C@H](CCC(N)=O)NC(=O)[C@@H]1CCCN1C(=O)[C@H](CCCCN)NC(=O)…  │ -->
<!-- │ CSCC[C@H](NC(=O)[C@H](CC(C)C)NC(=O)CNC(=O)[C@@H](Cc1ccccc1)NC(=O)[C@H](Cc1ccccc1)NC(=O)[C@@H](CCC(N)=O)NC(=O)[C@H](CCC(N)=O)NC(=O)[C@@H]1CCCN1C(=O)[C@H](CCCCN)NC(=O)…  │ -->
<!-- │ CSCC[C@@H](NC(=O)[C@H](CC(C)C)NC(=O)CNC(=O)[C@H](Cc1ccccc1)NC(=O)[C@H](Cc1ccccc1)NC(=O)[C@H](CCC(N)=O)NC(=O)[C@H](CCC(N)=O)NC(=O)[C@@H]1CCCN1C(=O)[C@H](CCCCN)NC(=O)[…  │ -->
<!-- │ CSCC[C@H](NC(=O)[C@H](CC(C)C)NC(=O)CNC(=O)[C@H](Cc1ccccc1)NC(=O)[C@H](Cc1ccccc1)NC(=O)[C@H](CCC(N)=O)NC(=O)[C@H](CCC(N)=O)NC(=O)[C@@H]1CCCN1C(=O)[C@H](CCCCN)NC(=O)[C…  │ -->
<!-- │ CSCC[C@H](NC(=O)[C@H](CC(C)C)NC(=O)CNC(=O)[C@H](Cc1ccccc1)NC(=O)[C@H](Cc1ccccc1)NC(=O)[C@@H](CCC(N)=O)NC(=O)[C@@H](CCC(N)=O)NC(=O)[C@H]1CCCN1C(=O)[C@H](CCCCN)NC(=O)[…  │ -->
<!-- │ CSCC[C@H](NC(=O)[C@@H](CC(C)C)NC(=O)CNC(=O)[C@@H](Cc1ccccc1)NC(=O)[C@@H](Cc1ccccc1)NC(=O)[C@H](CCC(N)=O)NC(=O)[C@@H](CCC(N)=O)NC(=O)[C@@H]1CCCN1C(=O)[C@H](CCCCN)NC(=…  │ -->
<!-- │ CSCC[C@H](NC(=O)[C@H](CC(C)C)NC(=O)CNC(=O)[C@H](Cc1ccccc1)NC(=O)[C@@H](Cc1ccccc1)NC(=O)[C@H](CCC(N)=O)NC(=O)[C@H](CCC(N)=O)NC(=O)[C@H]1CCCN1C(=O)[C@H](CCCCN)NC(=O)[C…  │ -->
<!-- ├─────────────────────────────────────────────────────────────────────────────────────────────────────────────────────────────────────────────────────────────────────────┤ -->
<!-- │                                                                           511 rows (40 shown)                                                                           │ -->
…
