…
Have problems getting the duckdb python client to load the extension. Getting error, and
not sure how to fix it. Might be a problem with the build process.

Used DuckDB to read the csv and then construct each SQL query with string formatting,
and output that to a file. Did one for Postgres and one for duckdb.
Now I can run the sql script and record the output to a file to record the experiment.

```sql
D with st as (select * from read_csv('top100_substructure_queries.csv', header=false)) select format('SELECT is_substruct(rdkit_mol, ''{}'') as s, count(*) from molecule group by s;', column0) from st;
┌───────────────────────────────────────────────────────────────────────────────────────────────────────────────────────────────────────────────┐
│                      format('SELECT is_substruct(rdkit_mol, ''{}'') as s, count(*) from molecule group by s;', column0)                       │
│                                                                    varchar                                                                    │
├───────────────────────────────────────────────────────────────────────────────────────────────────────────────────────────────────────────────┤
│ SELECT is_substruct(rdkit_mol, 'O=CNCCc1ccccc1') as s, count(*) from molecule group by s;                                                     │
│ SELECT is_substruct(rdkit_mol, 'C1CCCC1') as s, count(*) from molecule group by s;                                                            │
│ SELECT is_substruct(rdkit_mol, 'CC(C)C[C@H](NC(=O)[C@@H]1CCCN1C(=O)[C@@H]([NH3+])C(C)C)C([O-])=O') as s, count(*) from molecule group by s;   │
│ SELECT is_substruct(rdkit_mol, 'O=C1OC2=C(C=CC=C2)C=C1') as s, count(*) from molecule group by s;                                             │
│ SELECT is_substruct(rdkit_mol, 'OC(=O)C1=CC=CC=C1O') as s, count(*) from molecule group by s;                                                 │
│ SELECT is_substruct(rdkit_mol, 'C1CCC2CCCC2C1') as s, count(*) from molecule group by s;                                                      │
│ SELECT is_substruct(rdkit_mol, 'C1OC2=C(O1)C=CC=C2') as s, count(*) from molecule group by s;                                                 │
│ SELECT is_substruct(rdkit_mol, 'CCNC') as s, count(*) from molecule group by s;                                                               │
│ SELECT is_substruct(rdkit_mol, 'ClC1=CC=CC=C1Cl') as s, count(*) from molecule group by s;                                                    │
│ SELECT is_substruct(rdkit_mol, 'COc1cc2c(Nc3cc(CC(=O)Nc4cccc(F)c4F)[nH]n3)ncnc2cc1OCCCN(CCO)CC(C)C') as s, count(*) from molecule group by s; │
│ SELECT is_substruct(rdkit_mol, 'FC(F)(F)C1=CC=CC=C1') as s, count(*) from molecule group by s;                                                │
│ SELECT is_substruct(rdkit_mol, 'N1C=CC2=C1N=CC=C2') as s, count(*) from molecule group by s;                                                  │
│ SELECT is_substruct(rdkit_mol, 'N1N=CC2=CC=CC=C12') as s, count(*) from molecule group by s;                                                  │
│ SELECT is_substruct(rdkit_mol, 'NC1=C2N=CNC2=NC=N1') as s, count(*) from molecule group by s;                                                 │
│ SELECT is_substruct(rdkit_mol, 'NC1=CC=NC(N)=N1') as s, count(*) from molecule group by s;                                                    │
│ SELECT is_substruct(rdkit_mol, 'O=C1NC2=NC=NC=C2C=C1') as s, count(*) from molecule group by s;                                               │
│ SELECT is_substruct(rdkit_mol, 'OCCCC1=CNC2=CC=CC=C12') as s, count(*) from molecule group by s;                                              │
│ SELECT is_substruct(rdkit_mol, 'O=CNC1=NC=CC=C1') as s, count(*) from molecule group by s;                                                    │
│ SELECT is_substruct(rdkit_mol, 'N1C=CC=N1') as s, count(*) from molecule group by s;                                                          │
│ SELECT is_substruct(rdkit_mol, 'ONC') as s, count(*) from molecule group by s;                                                                │
│                                       ·                                                                                                       │
│                                       ·                                                                                                       │
│                                       ·                                                                                                       │
│ SELECT is_substruct(rdkit_mol, 'CI') as s, count(*) from molecule group by s;                                                                 │
│ SELECT is_substruct(rdkit_mol, 'OC') as s, count(*) from molecule group by s;                                                                 │
│ SELECT is_substruct(rdkit_mol, 'S1C2=CC=CC=C2N=C1C1=CC=CC=C1') as s, count(*) from molecule group by s;                                       │
│ SELECT is_substruct(rdkit_mol, 'CN') as s, count(*) from molecule group by s;                                                                 │
│ SELECT is_substruct(rdkit_mol, '[H]C(=C([H])C1=CC(O)=CC(O)=C1)C2=CC=C(O)C=C2') as s, count(*) from molecule group by s;                       │
│ SELECT is_substruct(rdkit_mol, 'O=S') as s, count(*) from molecule group by s;                                                                │
│ SELECT is_substruct(rdkit_mol, 'N1C=CC=C1.C2=CC3=C(C=C2)C=CC=C3') as s, count(*) from molecule group by s;                                    │
│ SELECT is_substruct(rdkit_mol, '[H]CN') as s, count(*) from molecule group by s;                                                              │
│ SELECT is_substruct(rdkit_mol, 'C1NCC2=C1C=CC3=C2C4=CC=CC=C4N3') as s, count(*) from molecule group by s;                                     │
│ SELECT is_substruct(rdkit_mol, 'N1C=CC=C1') as s, count(*) from molecule group by s;                                                          │
│ SELECT is_substruct(rdkit_mol, 'OC1=CC=C(C=CC2=CC(O)=CC(O)=C2)C=C1') as s, count(*) from molecule group by s;                                 │
│ SELECT is_substruct(rdkit_mol, 'C1=CC=NC=C1') as s, count(*) from molecule group by s;                                                        │
│ SELECT is_substruct(rdkit_mol, 'CC12CCC3C(CCC4=CC(O)=CC=C34)C1CCC2O') as s, count(*) from molecule group by s;                                │
│ SELECT is_substruct(rdkit_mol, 'CNC') as s, count(*) from molecule group by s;                                                                │
│ SELECT is_substruct(rdkit_mol, 'NC') as s, count(*) from molecule group by s;                                                                 │
│ SELECT is_substruct(rdkit_mol, 'C1=CC=CC=C1') as s, count(*) from molecule group by s;                                                        │
│ SELECT is_substruct(rdkit_mol, 'C1=CC2=C(C=C1)C=CC=C2') as s, count(*) from molecule group by s;                                              │
│ SELECT is_substruct(rdkit_mol, 'O=C1OC2=CC=CC=C2C=C1') as s, count(*) from molecule group by s;                                               │
│ SELECT is_substruct(rdkit_mol, 'CC') as s, count(*) from molecule group by s;                                                                 │
│ SELECT is_substruct(rdkit_mol, 'CC(C)C1(C)SC(Nc2ccccc2C(F)(F)F)=NC1=O') as s, count(*) from molecule group by s;                              │
├───────────────────────────────────────────────────────────────────────────────────────────────────────────────────────────────────────────────┤
│                                                              100 rows (40 shown)                                                              │
…
